<svg width="70" height="64" viewBox="0 0 70 64" fill="none" xmlns="http://www.w3.org/2000/svg">
<path d="M26 19L35 12L44 19V30C44 30.5304 43.7893 31.0391 43.4142 31.4142C43.0391 31.7893 42.5304 32 42 32H28C27.4696 32 26.9609 31.7893 26.5858 31.4142C26.2107 31.0391 26 30.5304 26 30V19Z" stroke="white" stroke-width="2" stroke-linecap="round" stroke-linejoin="round"/>
<path d="M32 32V22H38V32" stroke="white" stroke-width="2" stroke-linecap="round" stroke-linejoin="round"/>
<path d="M6.07747 49V40.36H9.02947C9.26947 40.36 9.50547 40.368 9.73747 40.384C9.96947 40.392 10.1975 40.42 10.4215 40.468C10.6455 40.508 10.8615 40.572 11.0695 40.66C11.2855 40.748 11.4935 40.864 11.6935 41.008C11.9815 41.216 12.2175 41.472 12.4015 41.776C12.5855 42.072 12.7295 42.388 12.8335 42.724C12.9455 43.052 13.0215 43.388 13.0615 43.732C13.1095 44.068 13.1335 44.38 13.1335 44.668C13.1335 44.956 13.1135 45.248 13.0735 45.544C13.0415 45.84 12.9855 46.132 12.9055 46.42C12.8255 46.7 12.7175 46.972 12.5815 47.236C12.4535 47.492 12.2895 47.728 12.0895 47.944C11.8895 48.168 11.6695 48.348 11.4295 48.484C11.1975 48.62 10.9495 48.728 10.6855 48.808C10.4295 48.88 10.1615 48.932 9.88147 48.964C9.60147 48.988 9.31747 49 9.02947 49H6.07747ZM6.89347 48.304H8.84947C9.21747 48.304 9.56147 48.284 9.88147 48.244C10.2095 48.196 10.5415 48.084 10.8775 47.908C11.1655 47.764 11.4015 47.568 11.5855 47.32C11.7695 47.072 11.9135 46.804 12.0175 46.516C12.1295 46.22 12.2055 45.912 12.2455 45.592C12.2935 45.272 12.3175 44.964 12.3175 44.668C12.3175 44.356 12.2975 44.04 12.2575 43.72C12.2175 43.392 12.1415 43.084 12.0295 42.796C11.9175 42.5 11.7655 42.232 11.5735 41.992C11.3815 41.744 11.1335 41.54 10.8295 41.38C10.5735 41.244 10.2695 41.156 9.91747 41.116C9.56547 41.076 9.20947 41.056 8.84947 41.056H6.89347V48.304ZM18.6976 45.736C18.3936 45.864 18.0856 45.948 17.7736 45.988C17.4616 46.028 17.1496 46.06 16.8376 46.084C16.2856 46.124 15.8536 46.248 15.5416 46.456C15.2376 46.664 15.0856 46.98 15.0856 47.404C15.0856 47.596 15.1216 47.764 15.1936 47.908C15.2736 48.044 15.3736 48.16 15.4936 48.256C15.6216 48.344 15.7656 48.412 15.9256 48.46C16.0936 48.5 16.2616 48.52 16.4296 48.52C16.7176 48.52 16.9976 48.484 17.2696 48.412C17.5416 48.34 17.7816 48.232 17.9896 48.088C18.2056 47.936 18.3776 47.748 18.5056 47.524C18.6336 47.292 18.6976 47.02 18.6976 46.708V45.736ZM17.4856 45.376C17.6216 45.36 17.7816 45.336 17.9656 45.304C18.1576 45.272 18.3136 45.228 18.4336 45.172C18.5536 45.116 18.6256 45.024 18.6496 44.896C18.6816 44.76 18.6976 44.636 18.6976 44.524C18.6976 44.156 18.5776 43.856 18.3376 43.624C18.1056 43.384 17.7096 43.264 17.1496 43.264C16.9016 43.264 16.6736 43.288 16.4656 43.336C16.2576 43.376 16.0736 43.452 15.9136 43.564C15.7616 43.668 15.6336 43.812 15.5296 43.996C15.4336 44.172 15.3696 44.396 15.3376 44.668H14.6056C14.6296 44.3 14.7136 43.988 14.8576 43.732C15.0016 43.468 15.1856 43.256 15.4096 43.096C15.6416 42.928 15.9056 42.808 16.2016 42.736C16.5056 42.656 16.8256 42.616 17.1616 42.616C17.4736 42.616 17.7656 42.652 18.0376 42.724C18.3176 42.788 18.5576 42.896 18.7576 43.048C18.9656 43.192 19.1256 43.388 19.2376 43.636C19.3576 43.884 19.4176 44.188 19.4176 44.548V47.932C19.4176 48.212 19.4656 48.392 19.5616 48.472C19.6656 48.544 19.8696 48.524 20.1736 48.412V48.976C20.1176 48.992 20.0336 49.016 19.9216 49.048C19.8176 49.08 19.7136 49.096 19.6096 49.096C19.4976 49.096 19.3896 49.084 19.2856 49.06C19.1656 49.044 19.0696 49.008 18.9976 48.952C18.9256 48.888 18.8656 48.816 18.8176 48.736C18.7776 48.648 18.7496 48.556 18.7336 48.46C18.7176 48.356 18.7096 48.248 18.7096 48.136C18.4056 48.472 18.0576 48.728 17.6656 48.904C17.2736 49.08 16.8496 49.168 16.3936 49.168C16.1216 49.168 15.8576 49.132 15.6016 49.06C15.3536 48.988 15.1336 48.876 14.9416 48.724C14.7496 48.572 14.5976 48.388 14.4856 48.172C14.3736 47.948 14.3176 47.684 14.3176 47.38C14.3176 46.324 15.0416 45.7 16.4896 45.508L17.4856 45.376ZM21.7176 47.056C21.8296 47.592 22.0296 47.972 22.3176 48.196C22.6136 48.412 23.0336 48.52 23.5776 48.52C23.8416 48.52 24.0696 48.488 24.2616 48.424C24.4536 48.36 24.6096 48.276 24.7296 48.172C24.8576 48.06 24.9536 47.936 25.0176 47.8C25.0816 47.664 25.1136 47.52 25.1136 47.368C25.1136 47.064 25.0136 46.84 24.8136 46.696C24.6216 46.544 24.3776 46.428 24.0816 46.348C23.7856 46.26 23.4656 46.188 23.1216 46.132C22.7776 46.068 22.4576 45.976 22.1616 45.856C21.8656 45.736 21.6176 45.564 21.4176 45.34C21.2256 45.116 21.1296 44.8 21.1296 44.392C21.1296 43.872 21.3176 43.448 21.6936 43.12C22.0776 42.784 22.6176 42.616 23.3136 42.616C23.9856 42.616 24.5296 42.768 24.9456 43.072C25.3696 43.368 25.6256 43.868 25.7136 44.572H24.9816C24.9176 44.092 24.7336 43.756 24.4296 43.564C24.1336 43.364 23.7576 43.264 23.3016 43.264C22.8456 43.264 22.4976 43.364 22.2576 43.564C22.0176 43.756 21.8976 44.012 21.8976 44.332C21.8976 44.612 21.9936 44.828 22.1856 44.98C22.3856 45.124 22.6336 45.244 22.9296 45.34C23.2256 45.428 23.5456 45.508 23.8896 45.58C24.2336 45.652 24.5536 45.756 24.8496 45.892C25.1456 46.02 25.3896 46.196 25.5816 46.42C25.7816 46.644 25.8816 46.956 25.8816 47.356C25.8816 47.652 25.8176 47.916 25.6896 48.148C25.5616 48.372 25.3856 48.56 25.1616 48.712C24.9376 48.864 24.6696 48.976 24.3576 49.048C24.0536 49.128 23.7176 49.168 23.3496 49.168C22.9816 49.168 22.6536 49.112 22.3656 49C22.0856 48.896 21.8456 48.748 21.6456 48.556C21.4456 48.364 21.2896 48.14 21.1776 47.884C21.0656 47.628 21.0016 47.352 20.9856 47.056H21.7176ZM27.2976 49V40.36H28.0176V43.648C28.3056 43.344 28.6016 43.096 28.9056 42.904C29.2176 42.712 29.5896 42.616 30.0216 42.616C30.4056 42.616 30.7616 42.684 31.0896 42.82C31.4176 42.948 31.6936 43.176 31.9176 43.504C32.0696 43.728 32.1576 43.96 32.1816 44.2C32.2136 44.432 32.2296 44.676 32.2296 44.932V49H31.5096V44.944C31.5096 44.384 31.3856 43.964 31.1376 43.684C30.8896 43.404 30.4776 43.264 29.9016 43.264C29.6776 43.264 29.4736 43.3 29.2896 43.372C29.1056 43.436 28.9376 43.524 28.7856 43.636C28.6416 43.748 28.5176 43.876 28.4136 44.02C28.3096 44.164 28.2296 44.316 28.1736 44.476C28.1016 44.676 28.0576 44.868 28.0416 45.052C28.0256 45.236 28.0176 45.436 28.0176 45.652V49H27.2976ZM34.7696 45.868C34.7696 46.244 34.8136 46.596 34.9016 46.924C34.9976 47.244 35.1336 47.524 35.3096 47.764C35.4856 47.996 35.7056 48.18 35.9696 48.316C36.2336 48.452 36.5336 48.52 36.8696 48.52C37.1736 48.52 37.4536 48.468 37.7096 48.364C37.9656 48.252 38.1896 48.092 38.3816 47.884C38.5736 47.676 38.7216 47.424 38.8256 47.128C38.9376 46.824 38.9936 46.476 38.9936 46.084C39.0096 45.692 38.9776 45.328 38.8976 44.992C38.8176 44.648 38.6896 44.348 38.5136 44.092C38.3376 43.836 38.1096 43.636 37.8296 43.492C37.5576 43.34 37.2376 43.264 36.8696 43.264C36.5416 43.264 36.2456 43.336 35.9816 43.48C35.7256 43.616 35.5056 43.804 35.3216 44.044C35.1456 44.276 35.0096 44.552 34.9136 44.872C34.8176 45.184 34.7696 45.516 34.7696 45.868ZM34.7696 49H34.0496V40.36H34.7696V43.78C35.0016 43.396 35.3176 43.108 35.7176 42.916C36.1256 42.716 36.5496 42.616 36.9896 42.616C37.4616 42.616 37.8696 42.708 38.2136 42.892C38.5656 43.068 38.8536 43.308 39.0776 43.612C39.3096 43.908 39.4816 44.256 39.5936 44.656C39.7056 45.056 39.7616 45.472 39.7616 45.904C39.7616 46.36 39.7096 46.788 39.6056 47.188C39.5016 47.588 39.3336 47.936 39.1016 48.232C38.8776 48.52 38.5896 48.748 38.2376 48.916C37.8856 49.084 37.4576 49.168 36.9536 49.168C36.7536 49.168 36.5496 49.14 36.3416 49.084C36.1336 49.028 35.9296 48.948 35.7296 48.844C35.5376 48.74 35.3576 48.612 35.1896 48.46C35.0296 48.3 34.8976 48.116 34.7936 47.908H34.7696V49ZM43.7735 49.168C43.3735 49.16 42.9975 49.088 42.6455 48.952C42.3015 48.816 41.9975 48.612 41.7335 48.34C41.4775 48.068 41.2735 47.728 41.1215 47.32C40.9695 46.912 40.8935 46.436 40.8935 45.892C40.8935 45.436 40.9535 45.012 41.0735 44.62C41.1935 44.22 41.3735 43.872 41.6135 43.576C41.8535 43.28 42.1535 43.048 42.5135 42.88C42.8735 42.704 43.2935 42.616 43.7735 42.616C44.2615 42.616 44.6855 42.704 45.0455 42.88C45.4055 43.048 45.7055 43.28 45.9455 43.576C46.1855 43.864 46.3615 44.208 46.4735 44.608C46.5935 45.008 46.6535 45.436 46.6535 45.892C46.6535 46.388 46.5855 46.836 46.4495 47.236C46.3135 47.636 46.1175 47.98 45.8615 48.268C45.6135 48.556 45.3095 48.78 44.9495 48.94C44.5975 49.092 44.2055 49.168 43.7735 49.168ZM45.8855 45.892C45.8855 45.524 45.8455 45.18 45.7655 44.86C45.6855 44.54 45.5615 44.264 45.3935 44.032C45.2255 43.792 45.0095 43.604 44.7455 43.468C44.4815 43.332 44.1575 43.264 43.7735 43.264C43.3975 43.264 43.0735 43.34 42.8015 43.492C42.5375 43.636 42.3215 43.832 42.1535 44.08C41.9855 44.32 41.8615 44.6 41.7815 44.92C41.7015 45.232 41.6615 45.556 41.6615 45.892C41.6615 46.276 41.7055 46.632 41.7935 46.96C41.8895 47.28 42.0255 47.556 42.2015 47.788C42.3775 48.02 42.5975 48.2 42.8615 48.328C43.1255 48.456 43.4295 48.52 43.7735 48.52C44.1495 48.52 44.4695 48.448 44.7335 48.304C45.0055 48.152 45.2255 47.952 45.3935 47.704C45.5615 47.456 45.6855 47.176 45.7655 46.864C45.8455 46.552 45.8855 46.228 45.8855 45.892ZM52.0375 45.736C51.7335 45.864 51.4255 45.948 51.1135 45.988C50.8015 46.028 50.4895 46.06 50.1775 46.084C49.6255 46.124 49.1935 46.248 48.8815 46.456C48.5775 46.664 48.4255 46.98 48.4255 47.404C48.4255 47.596 48.4615 47.764 48.5335 47.908C48.6135 48.044 48.7135 48.16 48.8335 48.256C48.9615 48.344 49.1055 48.412 49.2655 48.46C49.4335 48.5 49.6015 48.52 49.7695 48.52C50.0575 48.52 50.3375 48.484 50.6095 48.412C50.8815 48.34 51.1215 48.232 51.3295 48.088C51.5455 47.936 51.7175 47.748 51.8455 47.524C51.9735 47.292 52.0375 47.02 52.0375 46.708V45.736ZM50.8255 45.376C50.9615 45.36 51.1215 45.336 51.3055 45.304C51.4975 45.272 51.6535 45.228 51.7735 45.172C51.8935 45.116 51.9655 45.024 51.9895 44.896C52.0215 44.76 52.0375 44.636 52.0375 44.524C52.0375 44.156 51.9175 43.856 51.6775 43.624C51.4455 43.384 51.0495 43.264 50.4895 43.264C50.2415 43.264 50.0135 43.288 49.8055 43.336C49.5975 43.376 49.4135 43.452 49.2535 43.564C49.1015 43.668 48.9735 43.812 48.8695 43.996C48.7735 44.172 48.7095 44.396 48.6775 44.668H47.9455C47.9695 44.3 48.0535 43.988 48.1975 43.732C48.3415 43.468 48.5255 43.256 48.7495 43.096C48.9815 42.928 49.2455 42.808 49.5415 42.736C49.8455 42.656 50.1655 42.616 50.5015 42.616C50.8135 42.616 51.1055 42.652 51.3775 42.724C51.6575 42.788 51.8975 42.896 52.0975 43.048C52.3055 43.192 52.4655 43.388 52.5775 43.636C52.6975 43.884 52.7575 44.188 52.7575 44.548V47.932C52.7575 48.212 52.8055 48.392 52.9015 48.472C53.0055 48.544 53.2095 48.524 53.5135 48.412V48.976C53.4575 48.992 53.3735 49.016 53.2615 49.048C53.1575 49.08 53.0535 49.096 52.9495 49.096C52.8375 49.096 52.7295 49.084 52.6255 49.06C52.5055 49.044 52.4095 49.008 52.3375 48.952C52.2655 48.888 52.2055 48.816 52.1575 48.736C52.1175 48.648 52.0895 48.556 52.0735 48.46C52.0575 48.356 52.0495 48.248 52.0495 48.136C51.7455 48.472 51.3975 48.728 51.0055 48.904C50.6135 49.08 50.1895 49.168 49.7335 49.168C49.4615 49.168 49.1975 49.132 48.9415 49.06C48.6935 48.988 48.4735 48.876 48.2815 48.724C48.0895 48.572 47.9375 48.388 47.8255 48.172C47.7135 47.948 47.6575 47.684 47.6575 47.38C47.6575 46.324 48.3815 45.7 49.8295 45.508L50.8255 45.376ZM55.3934 49H54.6734V42.784H55.3934V43.948H55.4174C55.6174 43.452 55.8734 43.108 56.1854 42.916C56.5054 42.716 56.9254 42.616 57.4454 42.616V43.396C57.0374 43.388 56.7014 43.452 56.4374 43.588C56.1734 43.724 55.9614 43.908 55.8014 44.14C55.6494 44.372 55.5414 44.648 55.4774 44.968C55.4214 45.28 55.3934 45.608 55.3934 45.952V49ZM63.2226 45.868C63.2226 45.516 63.1746 45.184 63.0786 44.872C62.9826 44.552 62.8426 44.276 62.6586 44.044C62.4826 43.804 62.2626 43.616 61.9986 43.48C61.7426 43.336 61.4506 43.264 61.1226 43.264C60.7466 43.264 60.4226 43.34 60.1506 43.492C59.8786 43.636 59.6546 43.836 59.4786 44.092C59.3026 44.348 59.1746 44.648 59.0946 44.992C59.0146 45.328 58.9826 45.692 58.9986 46.084C58.9986 46.476 59.0506 46.824 59.1546 47.128C59.2666 47.424 59.4186 47.676 59.6106 47.884C59.8026 48.092 60.0266 48.252 60.2826 48.364C60.5386 48.468 60.8186 48.52 61.1226 48.52C61.4586 48.52 61.7586 48.452 62.0226 48.316C62.2866 48.18 62.5066 47.996 62.6826 47.764C62.8586 47.524 62.9906 47.244 63.0786 46.924C63.1746 46.596 63.2226 46.244 63.2226 45.868ZM63.2226 40.36H63.9426V49H63.2226V47.908H63.1986C63.0946 48.116 62.9586 48.3 62.7906 48.46C62.6306 48.612 62.4506 48.74 62.2506 48.844C62.0586 48.948 61.8586 49.028 61.6506 49.084C61.4426 49.14 61.2386 49.168 61.0386 49.168C60.5346 49.168 60.1066 49.084 59.7546 48.916C59.4026 48.748 59.1106 48.52 58.8786 48.232C58.6546 47.936 58.4906 47.588 58.3866 47.188C58.2826 46.788 58.2306 46.36 58.2306 45.904C58.2306 45.472 58.2866 45.056 58.3986 44.656C58.5106 44.256 58.6786 43.908 58.9026 43.612C59.1346 43.308 59.4226 43.068 59.7666 42.892C60.1186 42.708 60.5306 42.616 61.0026 42.616C61.4426 42.616 61.8626 42.716 62.2626 42.916C62.6706 43.108 62.9906 43.396 63.2226 43.78V40.36Z" fill="white"/>
</svg>
